2311.14	2427.59	2249.15	2178.76	2307.83	2065.8	2215.17	2248.89
2396.22	2527.23	2347.19	2258.43	2405.37	2152.66	2321.3	2336.3
2366.61	2495.93	2323.32	2236.86	2375.12	2129.6	2296.54	2315.47
2354.82	2482.03	2309.32	2225.56	2358.58	2116.76	2279.88	2300.47
2343.47	2470.52	2298.88	2218.85	2347.2	2109.99	2267.58	2288.27
2339.08	2466.12	2292.62	2216.76	2341.05	2105.54	2261.31	2284.94
2336	2461.66	2290.66	2212.54	2339.17	2099.98	2254.63	2277.19
2334.49	2456.24	2286.72	2212.25	2332.99	2100.8	2253.28	2276.19
2335.95	2456.9	2285.9	2210.73	2334.43	2099.94	2249.87	2273.53
2337.73	2456.55	2284.12	2209.01	2330.36	2101.79	2252.79	2273.58
2340.77	2458.46	2288.93	2209.11	2333.96	2098.98	2251.84	2272.58
2342.99	2455.51	2287.82	2207.89	2333.91	2103.65	2251.02	2270.73
2345.81	2454.99	2291.34	2214.23	2335.54	2103.54	2249.84	2269.51
2347.44	2458.88	2291.24	2214.13	2338.36	2104.17	2250.51	2270.5
2350.95	2459.62	2293.09	2214.16	2339.82	2105.18	2256.31	2274.42
2351.66	2463.41	2294.01	2216.08	2342.63	2108.71	2256.2	2274.3
2356.59	2465.48	2297.15	2216.92	2344.64	2111.83	2258.27	2275.97
2358.49	2467.47	2302.79	2220.01	2346.56	2116.35	2262.1	2273.61
2360.85	2471.15	2301.79	2221.83	2347.2	2119.3	2263.99	2274.39
2362.18	2473.11	2305.58	2223.73	2350.85	2123.07	2265.96	2278.14
2365.04	2476.65	2310.99	2223.66	2351.95	2124.82	2267.72	2278.06
2365.61	2478.49	2312.84	2227.21	2357.24	2128.48	2266.69	2279.89
2369.92	2479.9	2315.36	2230.4	2361.55	2128.14	2272.89	2284.24
2372.98	2483.08	2318.6	2232.92	2361.71	2131.4	2272.48	2283.83
2374.15	2486.69	2319.36	2233.51	2364.62	2135.02	2275.09	2284.53
2381.25	2490.45	2323.14	2237.17	2366.5	2140.6	2276	2286.46
2381.12	2493.94	2325.9	2241.74	2369.89	2142.31	2277.71	2287.06
2384.58	2495.72	2329.53	2243.48	2371.62	2144.1	2278.72	2289.92
2386.66	2496.07	2332.48	2245.57	2372.55	2147.29	2279.84	2292.79
2388.83	2501.37	2333.38	2244.91	2374.17	2147.92	2283.38	2294.46
2393.55	2503.22	2336.04	2249.01	2377.13	2151.61	2285.26	2297.39
2393.38	2504.87	2339.55	2250.63	2378.93	2153.47	2285.29	2298.16
2395.37	2505.86	2343.45	2254.39	2381.36	2156.96	2289.62	2299.88
2399.33	2511.05	2347.57	2256.6	2381.77	2160.45	2291.28	2303.33
2404.19	2511.99	2351.43	2257.4	2386.65	2163.5	2294.11	2304.25
2409.35	2517.19	2347.17	2262.54	2390.65	2169.41	2296.41	2306.51
2409.67	2517.68	2353.48	2262.3	2392.16	2171.01	2298.01	2309.91
2413.12	2521.26	2352.38	2262.89	2391.49	2171.73	2300.83	2312.74
2414.48	2525.1	2354.4	2264.2	2394.05	2173.73	2303.67	2316.56
2417.78	2527.77	2359.72	2268.69	2395.61	2177.2	2304.49	2316.35
2419.46	2530.28	2358.84	2269.27	2400.23	2181.86	2308.11	2319.93
2421.28	2531.12	2361.56	2268.19	2403.83	2183.75	2309	2321.81
2422.95	2533.91	2363.31	2272.16	2405.51	2185.5	2310.76	2323.54
2425.84	2535.69	2366.96	2275.68	2407.24	2187.3	2310.72	2324.25
2428.72	2539.3	2368.76	2277.42	2411.89	2188.04	2312.52	2326.03
2427.8	2541.39	2372.69	2279.44	2410.98	2191.15	2316.46	2328.09
2431.32	2543.22	2374.54	2281.22	2412.14	2194.83	2316.46	2330.99
2432.01	2543.32	2378.33	2283.1	2416.4	2194.91	2316.56	2332.9
2433	2544.97	2378.16	2284.72	2419.4	2196.82	2319.31	2332.98
2433.84	2548.89	2380.25	2286.74	2419.29	2199.6	2321.06	2338.34
2435.26	2549.3	2382.59	2288.2	2422.6	2200.18	2323.7	2336.29
2435.09	2552.01	2382.42	2290.95	2423.07	2200.03	2327.25	2335.07
2438.32	2552.33	2384.57	2291.89	2424.51	2201.34	2328.38	2337.18
2440.93	2556.26	2389.54	2293.26	2427.69	2201.57	2330.48	2339.25
2441.07	2557.18	2391.52	2295.17	2428.45	2205.37	2328.75	2341.21
2440.85	2559.05	2395.01	2297.88	2431.79	2207.01	2330.39	2341
2445.16	2559.44	2396.49	2298.19	2433.19	2208.51	2331.89	2343.53
2445.02	2561.13	2398.2	2299.84	2433.05	2210.22	2335.47	2343.39
2446.99	2565.02	2400.26	2301.83	2434.4	2210.41	2332.8	2344.36
2447.44	2563.65	2400.7	2304.04	2435.48	2209.78	2335.09	2347.68
2450.85	2565.36	2401.42	2306.84	2437.14	2214.39	2337.83	2349.39
2452.17	2566.31	2403.43	2308.77	2439.72	2214.53	2339.84	2349.54
2452.08	2568.05	2405.19	2308.69	2442.54	2216.29	2338.74	2351.28
2452.45	2569.65	2408.68	2310.26	2442.31	2216.89	2341.39	2349.23
