2436.33	2417.11	2237.55	2331.46	2483.06	2481.85	2453.82	2536.73
2422.22	2417.69	2238.42	2332.56	2470.06	2470.65	2455.78	2535.45
2405.96	2399.95	2224.98	2320.87	2457.31	2457.76	2441.23	2519.22
2397.36	2386.3	2216.98	2312.16	2445.18	2440.77	2424.19	2507.14
2391.71	2379.33	2207.52	2296.04	2432.55	2432.76	2416.17	2493.35
2386.12	2371.35	2199.52	2291.52	2423.45	2424.8	2404.5	2490.15
2381.24	2361.85	2192.08	2284.32	2419.74	2418.73	2396.05	2479.43
2376.23	2357.81	2185.97	2279.32	2412.4	2412.58	2391.22	2475.59
2373.89	2350.91	2185.95	2280.51	2412.57	2405.82	2387.69	2472.24
2367.78	2347.2	2179.88	2276.76	2405.09	2401.91	2383.78	2468.25
2372.99	2348.81	2175.58	2277.3	2406.84	2403.56	2381.96	2466.52
2364.7	2342.89	2177.91	2276.07	2400.92	2398.93	2380.81	2461.79
2365.02	2345.6	2175.79	2271.68	2401.21	2397.09	2377.67	2462.05
2367.82	2340.23	2171.79	2276.83	2398.18	2397.57	2374.7	2463.73
2368.08	2339.45	2171.04	2277.17	2394.95	2393.09	2378.68	2461.7
2367.68	2338	2170.67	2274.43	2396.88	2391.6	2372.44	2458.96
2366.5	2335.61	2168.26	2274.43	2393.37	2391.6	2373.77	2454.24
2366.84	2333.85	2168.57	2273.62	2389.04	2390.87	2369.33	2456.92
2363.69	2333.05	2163.4	2270.48	2391.72	2383.13	2367.46	2451.37
2367.2	2326.17	2161.99	2272.83	2392.88	2387.89	2365.35	2453.69
2361.71	2328.91	2163.72	2269.68	2386.23	2378.72	2360.64	2452.87
2365.27	2328.96	2160.36	2270.96	2383.95	2380.08	2363.36	2450.6
2367.76	2329.12	2157.08	2272.23	2382.94	2375.71	2365.9	2450.76
2369.31	2322.61	2157.42	2269.1	2384.48	2373.7	2362.83	2446.44
2365.12	2324.43	2157.85	2270.78	2378.44	2374.66	2361.4	2450.95
2366.52	2320.91	2155.65	2269.88	2375.74	2370.85	2357.6	2447.06
2364.47	2318.99	2150.43	2271.38	2379.62	2366.61	2356.81	2445.07
2362.27	2317.06	2149.14	2271.52	2378.61	2363.3	2353.51	2445.21
2359.99	2315.73	2144.76	2273.91	2377.48	2362.02	2353.84	2447.58
2364.69	2314.7	2151.59	2269.31	2370.46	2358.57	2356.99	2444.07
2364.84	2314.85	2148.31	2268.34	2369.45	2358.97	2351.6	2437.21
2362.74	2310.48	2146.45	2268.54	2370.84	2356.7	2349.31	2440.91
2359.68	2309.54	2143.44	2268.96	2367.78	2356.07	2351.09	2441.34
2360.38	2304.64	2146.44	2270.89	2366.17	2352.18	2347.2	2437.37
2358.53	2305.07	2141.01	2270.19	2367.77	2347.84	2346.29	2436.65
2360.54	2309.54	2143.12	2268.76	2366.28	2348.83	2341.47	2439.81
2358.08	2304.63	2142.03	2269.76	2362.67	2350.05	2340.01	2438.52
2361.81	2306.17	2141.2	2268.82	2366.38	2347.84	2341.53	2442.21
2360.3	2303.83	2144.33	2272.14	2368.38	2352.31	2343.63	2439.56
2364.11	2307.5	2143.57	2271.13	2366.33	2345.39	2340.44	2443.32
2366.45	2305.08	2143.55	2270	2363.97	2344.32	2342.82	2439.8
2367.9	2303.27	2141.35	2270.23	2361.11	2344.95	2340.02	2439.29
2365.73	2304.46	2141.51	2265.82	2364.44	2347.12	2340.83	2440.24
2367.73	2304.2	2139.79	2266.57	2362.87	2345.5	2342.96	2438.7
2365.72	2301.11	2141.1	2269.27	2364.36	2343.74	2340.91	2436.72
2360.87	2298.48	2139.9	2267.94	2358.35	2340.84	2344.12	2437.66
2365.1	2297.08	2143.4	2267.57	2362.59	2343.12	2342.69	2439.6
2366.6	2298.37	2140.24	2267.83	2361.72	2342.06	2347.76	2437.54
2368.8	2295.17	2137.68	2262.94	2359.22	2336.35	2339.37	2436.22
2367.76	2296.27	2140.18	2263.03	2359.31	2338.55	2340.83	2438.66
2367.31	2298.24	2136.37	2265.14	2357.79	2339.44	2340.38	2435.89
2366.87	2300.22	2136.95	2262.34	2358.49	2336.61	2342.34	2440.08
2366.78	2300.13	2136.88	2263.53	2357.26	2337.87	2342.26	2439.99
2368.98	2299.98	2133.33	2268.13	2358.25	2335.32	2341.07	2435.18
2368.01	2294.3	2132.48	2263.52	2357.25	2334.42	2338.81	2442.36
2367.01	2300.24	2136	2264.74	2353.89	2336.64	2340.31	2442.49
2368.72	2298.67	2133.01	2264.08	2353.13	2334.99	2343.17	2441.82
2372.9	2297.96	2137.05	2269.5	2356.27	2338.17	2342.92	2444.98
2373.02	2296.06	2132.32	2266.16	2358.62	2338.16	2345.33	2446.19
2373.98	2295.91	2132.17	2264.91	2355.01	2330.86	2346.6	2447.21
2372.88	2298.34	2134.61	2263.84	2353.9	2333.58	2344.21	2450.72
2377.63	2297.35	2134.63	2268.42	2355.05	2332.25	2347.65	2450.81
2373.02	2297.33	2132.65	2267.31	2353.9	2333.28	2350.04	2451.93
