2791.35	2490.79	2497.58	2751.79	2643.29	2359.99	2447.08	2990.08
2848.28	2543.7	2559.6	2804.58	2696.44	2409.94	2505.92	3049.59
2825.12	2524.18	2543.65	2798.27	2679.86	2393.18	2492.82	3048.7
2802.89	2504.54	2522.88	2778.75	2661.32	2379.41	2477.81	3031.17
2785.44	2486.8	2510.61	2762.86	2644.18	2362.8	2462.09	3013.98
2770.98	2476.07	2497.84	2750.29	2631.97	2354.52	2452.88	3000.32
2760.05	2466.07	2488.74	2740.32	2625.06	2344.54	2446.57	2992.32
2747.27	2459.76	2481.5	2733.21	2615.9	2338.22	2439.37	2985.38
2740.73	2452.36	2474.89	2727.65	2609.37	2332.7	2432.77	2978.84
2736.6	2444.44	2468.8	2721.64	2605.21	2325.57	2428.55	2972.93
2729.98	2439.64	2464.98	2717.87	2600.41	2325.51	2424.75	2970.32
2726.49	2436.87	2461.25	2714.29	2602.36	2320.89	2421.14	2969.37
2722.48	2433.18	2458.49	2711.42	2594.02	2317.21	2421.15	2964.65
2720.49	2430.13	2455.46	2711.24	2589.11	2312.32	2416.24	2963.73
2714.35	2424.31	2451.43	2706.2	2587.72	2309.17	2413.1	2962.31
2713.4	2424.44	2451.57	2706.34	2583.13	2307.45	2409.5	2957.74
2709.94	2421.7	2446.98	2705.48	2580.37	2301.8	2407.78	2957.93
2708.87	2416.99	2444.13	2701.8	2577.48	2299.98	2405.94	2956.14
2703.11	2414.16	2442.32	2702.7	2574.63	2298.2	2404.99	2956.22
2700.03	2415.05	2441.18	2698.82	2571.51	2295.13	2404.81	2953.08
2697.18	2410.37	2441.24	2696	2571.87	2293.6	2404.13	2950.57
2694.63	2407.81	2436.83	2696.37	2569.05	2290.79	2404.23	2950.69
2694.83	2403.24	2437.01	2696.57	2566.32	2288.06	2404.4	2952.72
2689.07	2403.3	2436.08	2693.74	2562.36	2286.28	2401.58	2948.78
2689.32	2396.94	2432.55	2692.97	2563.71	2284.65	2398.94	2950.16
2683.86	2397.27	2431.9	2693.34	2562.96	2283.91	2397.4	2948.75
2680.68	2394.13	2429.77	2691.21	2559.78	2281.57	2396.15	2950.27
2677.94	2392.44	2428.94	2688.5	2561.76	2279.09	2394.44	2950.47
2674.9	2389.44	2424.09	2689.21	2555.81	2277.93	2397.06	2949.24
2673.44	2389.76	2423.52	2687.71	2555.05	2278.24	2396.38	2948.55
2670.54	2386.88	2420.67	2688.76	2555.06	2275.35	2396.39	2948.56
2669.73	2387.13	2420.83	2686.98	2554.23	2273.75	2394.77	2951.79
2668.36	2384	2419.69	2685.68	2552.16	2268.78	2392.66	2947.85
2668.26	2383.91	2416.73	2685.58	2550.96	2265.79	2394.44	2951.02
2666.93	2379.59	2415.29	2686.07	2548.5	2264.36	2393.87	2949.73
2664.7	2376.66	2415.25	2687.88	2548.65	2263.43	2392.13	2951.72
2663.97	2376.98	2413.6	2686.19	2548.81	2261.73	2393.16	2948.99
2664.07	2376.04	2412.8	2685.46	2544.89	2263.66	2393.25	2950.2
2664.02	2372.06	2411.76	2686.24	2544.84	2258.87	2392.2	2950.87
2663.1	2375.1	2410.93	2684.55	2542.08	2257.96	2392.35	2948.14
2662	2375.91	2410.92	2683.51	2542.07	2256.1	2390.47	2949.95
2662.05	2371.43	2409.08	2681.71	2541.03	2256.15	2390.52	2948.19
2659.38	2370.6	2408.32	2680.09	2543.07	2253.45	2392.61	2950.28
2661.33	2370.71	2406.54	2679.18	2540.27	2251.71	2391.71	2949.33
2660.17	2366.94	2405.49	2680.97	2539.11	2251.65	2391.65	2949.25
2659.96	2362.82	2404.32	2681.6	2538.91	2250.42	2389.46	2950.84
2660.1	2362.94	2405.43	2681.74	2537.95	2250.54	2389.59	2949.91
2657.19	2360.06	2403.47	2680.73	2537.96	2247.65	2389.6	2951.75
2658.94	2361.02	2400.61	2683.53	2539.7	2246.52	2389.52	2951.65
2656.67	2359.89	2402.4	2682.41	2540.34	2247.49	2391.31	2951.54
2657.86	2359.99	2401.52	2685.4	2540.44	2244.68	2391.41	2951.66
2658.79	2360.15	2401.68	2683.55	2542.52	2244.91	2390.65	2952.7
2655.9	2363.88	2401.7	2683.57	2543.2	2243.8	2391.59	2952.63
2653.45	2361.4	2404	2685.89	2543.63	2241.29	2389.13	2954.97
2653.93	2358.27	2402.78	2687.49	2542.29	2242.92	2388.89	2954.67
2655.03	2357.25	2402.79	2688.36	2542.31	2241.08	2388.9	2954.69
2652.19	2359.17	2402.86	2688.43	2544.21	2241.14	2387.98	2955.52
2654.04	2355.47	2404.76	2689.31	2543.14	2241.16	2389.87	2958.45
2651.11	2357.31	2402.86	2689.29	2542.04	2241.14	2389.85	2957.35
2653.13	2354.58	2403.93	2688.45	2543.29	2240.25	2390.02	2960.46
2651.24	2356.39	2403.88	2689.41	2542.16	2240.2	2389.97	2961.15
2652.46	2356.8	2401.44	2691.75	2544.43	2242.44	2390.39	2960.59
2652.09	2356.48	2401.1	2692.24	2544.08	2243.99	2388.18	2961.26
2651.94	2356.34	2402.85	2693.95	2542.85	2242	2390.8	2961.84
2651.89	2354.44	2399.94	2692.03	2545.71	2241.96	2392.64	2964.7
2650.74	2358.09	2400.85	2692.82	2544.56	2241.9	2392.57	2964.29
2651.6	2358.18	2399.96	2694.79	2545.55	2241.06	2391.81	2962.74
2651.57	2360.01	2400.91	2694.76	2545.56	2241.07	2393.69	2964.58
2650.68	2361	2399.13	2693.94	2547.39	2240.02	2393.69	2964.58
2656.63	2361.13	2400.23	2695.08	2546.45	2239.33	2395.7	2962.9
2655.47	2359.18	2402.03	2695.85	2548.19	2240.06	2395.62	2964.62
2655.6	2360.13	2402.15	2695.99	2547.56	2240.17	2397.62	2969.52
2654.65	2361.27	2403.17	2697.98	2546.6	2240.27	2395.84	2968.58
2661.35	2362.2	2401.39	2699.97	2546.71	2241.41	2394.96	2968.7
2661.48	2362.32	2403.39	2697.23	2543.92	2240.48	2396.96	2967.77
2660.4	2362.31	2404.31	2700.97	2542.08	2242.32	2396.96	2971.44
2664.18	2362.4	2409.15	2700.06	2545.08	2241.36	2397.04	2970.48
2662.17	2363.27	2408.02	2698.01	2542.01	2241.22	2399.76	2973.19
