2719.02	2234.13	2757.13	3166.73	2970.83	2571.36	2600.01	3199.91
2762.13	2273.67	2832.37	3235.4	3028.83	2630.93	2689.2	3304.91
2730.73	2251.36	2809.82	3207.3	3006.7	2607.37	2665.52	3282.68
2704.02	2235.37	2783.94	3186.37	2984.45	2592.14	2645.5	3259.61
2691.02	2226.95	2765.99	3166.04	2970.05	2578.97	2624.08	3238.28
2681	2214.58	2749.99	3151.54	2959.03	2567.73	2613.89	3225.98
2669.4	2207.86	2740.75	3137.63	2951.99	2557.34	2604.64	3211.08
2661.46	2202.16	2726.87	3126.3	2941.76	2555.2	2594.28	3204.43
2658.38	2194.08	2723.92	3119.99	2941.34	2545.19	2590.11	3194.61
2652.08	2191.27	2718.55	3114.69	2934.72	2543.18	2583.51	3190.62
2650.09	2185.63	2709.42	3109.14	2930.44	2540.05	2582.63	3187.36
2645.1	2180.88	2710.3	3108.9	2928.81	2537.32	2581.14	3187.41
2641.08	2180.14	2702.87	3106.1	2925.07	2533.36	2579.53	3183.32
2639.25	2175.2	2697.69	3103.21	2926.5	2527.02	2576.71	3176.86
2633.92	2172.6	2699.62	3098.13	2921.94	2521.16	2576.72	3176.58
2633.3	2175.12	2694.06	3097.23	2923.32	2527.1	2570.92	3175.67
2631.83	2175.01	2691.59	3093.51	2920.39	2522.01	2568.28	3174.01
2631.38	2171.04	2685.26	3090.68	2923.17	2521.58	2569.05	3173.46
2624.22	2167.87	2682.96	3093.02	2920.92	2519.29	2565.54	3172.21
2622.67	2163.53	2683.68	3094.9	2920.42	2516.42	2565.03	3172.07
2628.17	2160.74	2683.48	3088.93	2920.22	2517.36	2564.78	3170.67
2618.57	2158.35	2680.99	3088.75	2920.05	2514.74	2564.64	3172.78
2619.89	2159.68	2679.77	3086.43	2920.04	2512.42	2564.63	3171.49
2614.24	2153.23	2677.91	3087.89	2915.66	2512.96	2562.79	3170.61
2615.65	2158.13	2674.85	3084.88	2917.19	2508.62	2559.7	3173.46
2613.1	2153.38	2668.69	3086.86	2913.31	2507.27	2558.23	3171.85
2608.52	2153.26	2667.83	3083.69	2913.68	2504.04	2559.76	3170.97
2609.1	2150.22	2665.69	3084.98	2913.89	2505.31	2558.75	3171.21
2606.51	2148.01	2666.89	3079.2	2912.69	2500.74	2557.62	3174.6
2606.64	2143.19	2662.35	3078.1	2909.26	2500.86	2556.55	3171.19
2604.54	2143.33	2661.32	3081.85	2914.03	2499.78	2559.1	3174.96
2607.86	2141.15	2662.63	3078.25	2910.58	2496.48	2558.01	3176.11
2604.2	2142.43	2656.7	3078.17	2912.81	2493.95	2556.75	3174.76
2605.34	2135.39	2659.22	3080.71	2911.44	2497.43	2557.81	3175.69
2602.54	2134.96	2658.68	3083.64	2913.45	2492.4	2559.91	3176.65
2596.99	2132.02	2656.59	3080.44	2911.5	2498.56	2557.86	3175.75
2592.71	2130.9	2658.06	3081.83	2912.81	2496.49	2560.46	3180.67
2593.94	2127.53	2656.01	3082.16	2911.86	2496.63	2560.74	3183.32
2592.18	2127.96	2655.34	3083.86	2912.44	2494.8	2560.06	3184.99
2592.03	2124.24	2652.85	3087.24	2911.01	2495.76	2559.91	3183.54
2589.74	2124.52	2652.07	3086.41	2909.09	2493.77	2559.06	3186.27
2589.1	2126.26	2647.81	3086.73	2910.67	2493.15	2559.62	3185.48
2588.74	2126.75	2649.62	3089.91	2907.78	2494.83	2560.18	3189.57
2589.34	2124.19	2643.38	3087.02	2906.11	2496.93	2557.48	3189.13
2585.28	2118.88	2641.7	3087.54	2905.58	2494.03	2562.88	3190.65
2583.66	2120.74	2643.56	3088.32	2905.05	2493.56	2560	3190.4
2588.21	2120.75	2643.57	3087.11	2907.37	2493.57	2557.67	3186.85
2584.01	2123.45	2641.75	3088.7	2906.68	2490.53	2559.41	3190.71
2584.44	2119.27	2637.51	3086.76	2908.21	2494.49	2559.83	3187.68
2581.97	2120.73	2638.81	3085.85	2908.38	2493.42	2558.8	3191.43
2583.13	2119.27	2639.85	3089.09	2910.5	2489.88	2561.16	3190.19
2577.22	2116.97	2638.6	3090.25	2909.14	2493.17	2562.06	3195.73
2575.77	2117.79	2639.6	3086.53	2909.05	2493.09	2565.5	3196.69
2576.26	2113.66	2640.1	3087.12	2909.6	2494.68	2563.64	3197.3
2577.49	2115.86	2640.02	3085.8	2911.82	2494.6	2562.38	3197.02
2576.13	2115.82	2639.98	3085.76	2909.27	2492.23	2564.69	3198.21
2577.38	2112.46	2639.06	3087.19	2914.2	2494.83	2562.62	3201.94
2577.45	2112.52	2636.8	3086.17	2914.28	2496.02	2569.74	3203.27
2577.05	2114.45	2641.06	3085.57	2913.64	2496.83	2566.98	3200.28
2581.15	2112.88	2638.4	3090.13	2919.41	2494.11	2571.36	3202.58
2580.96	2116.31	2640.54	3091.02	2920.26	2492.71	2569.99	3203.41
2580.02	2115.02	2638.24	3093.39	2917.99	2493.96	2565.33	3207.02
2578.85	2115.13	2637.19	3094.68	2919.22	2499.88	2567.82	3205.95
2580.3	2117.52	2637.33	3092.51	2921.69	2501.22	2569.13	3213.08
2578.81	2116.42	2638.34	3092.29	2916.85	2499.84	2568.94	3210.38
2578.8	2117.36	2637.14	3091.08	2920.24	2506.92	2571.29	3213.93
2584.18	2117.91	2637.8	3094.03	2919.68	2507.57	2570.81	3213.32
2580.54	2119.18	2637.74	3096.29	2927.8	2505.1	2573.1	3217.89
2585.01	2121.37	2637.64	3093.76	2922	2504.03	2568.47	3214.41
2584.04	2120.33	2637.99	3097.71	2928.08	2506.54	2574.53	3213.41
2582.95	2120.5	2638.19	3099.07	2927.07	2507.87	2573.56	3217.21
2583.67	2117.75	2634.07	3097.18	2926.42	2506.11	2576.5	3221.13
2583.77	2121.42	2632.99	3098.5	2925.29	2505.07	2581.31	3220.03
