2062.27	1940.31	1768.81	1828.54	2035.71	1927.04	1738.19	1586.7
2211.61	2101.79	1901.66	1913.36	2184.07	2091.34	1879.45	1661.85
2171.51	2072.77	1877.88	1906.42	2139.72	2052.93	1852.81	1654.41
2133.55	2030.42	1844.27	1888.18	2100.24	2009.4	1820.66	1637.23
2105.65	2001.81	1820.85	1877.15	2075.72	1983.8	1799.01	1627.01
2090.18	1979.74	1807.73	1869.65	2060.3	1966.9	1786.42	1622.14
2077.88	1968.65	1796.64	1863.25	2046.67	1955.36	1774.09	1620.49
2070.53	1959.54	1790.95	1858.84	2042.33	1946.71	1770.98	1618.09
2067.27	1955.86	1784.75	1855.61	2041.77	1944.74	1774.13	1622.2
2066.78	1957.11	1787.2	1858.09	2040.2	1940.39	1774.86	1623.22
2068.96	1955.74	1784.49	1859.32	2039.39	1945.07	1777.68	1625.21
2071.34	1957	1790.08	1855.47	2040.09	1945.43	1779.85	1630.81
2072.48	1959.48	1794.21	1854.93	2042.23	1950.07	1783.53	1636.11
2071.27	1966.48	1792.36	1854.32	2044.35	1947.67	1784.18	1639.83
2073.36	1966.88	1796.97	1857.67	2049.38	1952.43	1792.32	1641.56
2078.78	1968.05	1800.37	1855.43	2051.15	1953.81	1800.1	1645.97
2077.93	1970.24	1804.57	1859.31	2054.29	1956.92	1803.21	1646.08
2082.09	1975.71	1804.12	1863.56	2058.44	1957.82	1804.47	1647.35
2085.45	1976.66	1808.05	1865.3	2066.44	1965.06	1807.88	1652.04
2088.52	1980.97	1811.09	1865.84	2067.85	1965.13	1813.92	1655.09
2095.56	1981.76	1813.11	1867.39	2070.17	1970.15	1817.62	1658.72
2096.79	1988.11	1814.76	1870.77	2071.42	1970.54	1820.53	1661.65
2097.99	1988.14	1817.8	1878.52	2074.27	1973.07	1825.23	1661.27
2101.18	1989.24	1820.63	1876.64	2078.77	1975.89	1827.66	1667.13
2103.83	1995.34	1825.04	1881.04	2078.43	1979.02	1830.76	1668.53
2108.46	1997.04	1826.73	1882.25	2081.39	1981.96	1832.43	1671.87
2108.75	1999.04	1831.69	1885.22	2085	1985.68	1840.79	1675.09
2108.3	2003.33	1834.66	1885.5	2088.53	1987.75	1847.09	1678.77
2113.1	2007.66	1837.74	1891.56	2095.64	1991.32	1846.34	1683.55
2114.27	2008.92	1836.05	1895.07	2093.81	1992.57	1853.15	1684.83
2117.16	2010.55	1840.18	1896.22	2096.46	1996.03	1856.56	1689.13
2125.02	2014.2	1841.6	1898.13	2098.22	2002.07	1861.78	1690.88
2120.27	2018.48	1845.16	1897.72	2104.11	2003.37	1864.36	1692.21
2122.01	2020.63	1848.51	1898.61	2107.2	2003.79	1869.01	1698.54
2127.39	2021.8	1848.37	1899.74	2109.56	2006.18	1874.32	1699.1
2130.96	2024.47	1852.77	1907.11	2108.44	2011.08	1874.94	1702.64
2130.86	2026.47	1854.25	1907.86	2112.05	2016.05	1879.88	1704.55
2131.85	2028.79	1858.36	1911.96	2114.36	2017.13	1879.71	1703.61
2129.28	2031.07	1859.64	1908.51	2114.41	2023.62	1885.72	1708.71
2138.28	2032.68	1859.24	1913.58	2117.8	2029.95	1890.77	1711.64
2136.4	2037.35	1864.69	1913.07	2115.55	2029.4	1894.96	1711.95
2137.81	2037.1	1864.45	1916.31	2116.96	2029.64	1899.42	1711.35
2140.19	2039.14	1866.96	1916.59	2120.62	2032.92	1903.14	1713.29
2142.74	2039.43	1871.44	1924.55	2123.92	2036.18	1903.41	1719.52
2143.25	2047.25	1874.54	1923.45	2124.05	2039.79	1906.51	1719.63
2143	2047.02	1879.04	1924.97	2130.21	2041.35	1909.78	1724.16
2144.81	2050.62	1879.65	1925.6	2126.96	2041.11	1909.56	1726.04
2147.9	2051.58	1881.14	1928.31	2129.99	2043.62	1916.01	1728.67
2151.59	2058.34	1883.15	1928.59	2131.97	2044.41	1919.27	1727.62
2152.29	2053.41	1885.43	1933.11	2133.43	2044.2	1920.8	1733.43
2154.03	2055.2	1888.45	1928.44	2136.83	2046.73	1920.84	1735.16
2155.55	2058.02	1888.81	1934.75	2139.67	2050.54	1927.12	1738.02
2156.8	2061.45	1888.76	1936.45	2139.25	2052.23	1928.33	1739.66
2157.26	2061.52	1892.31	1935.29	2141.36	2054.04	1931.84	1741.42
2162.07	2062.17	1892.43	1938.91	2142.82	2057.14	1931.96	1745.82
2163.03	2065.67	1893.02	1939.48	2145.09	2056.45	1936.01	1743.93
2166.17	2066.33	1896.63	1940.13	2144.27	2061.3	1940.38	1747.43
2163.22	2067.6	1898.41	1943.15	2148.99	2060.84	1940.89	1745.78
2166.67	2066.81	1898.3	1943.03	2149.08	2063.02	1938.32	1749.14
2169.35	2066.51	1901.51	1943.81	2153.44	2063.22	1942.27	1751.87
2167.95	2072.36	1904.4	1947.91	2150.71	2066.1	1942.18	1751.79
2167.83	2072.25	1904.3	1947.8	2149.35	2063.08	1943.86	1752.16
2169.35	2066.51	1901.51	1943.81	2153.44	2063.22	1942.27	1751.87
2167.95	2072.36	1904.4	1947.91	2150.71	2066.1	1942.18	1751.79
