2582.8	2395.95	2398.12	2754.52	2580.7	2362.37	2590.37	2516.85
2684.21	2489.06	2498.26	2847.88	2682.89	2461.37	2707.81	2583.73
2642.62	2456.43	2465.66	2817.19	2647.34	2427.91	2685.9	2570.44
2620.67	2430.55	2442.18	2802.46	2624.3	2406.06	2660.22	2552.13
2602.06	2411.8	2428.08	2792.51	2607.01	2390.98	2642.6	2545.27
2593.17	2401.7	2414.49	2776.85	2593.56	2375.21	2625.43	2535.36
2585.7	2395.35	2399.87	2772.71	2580.3	2363.01	2612	2527.94
2579.09	2387.58	2396.82	2761.53	2572.43	2357.7	2605.38	2521.35
2577.4	2384.66	2392.71	2759.95	2573.31	2350.1	2600.16	2526.58
2576.63	2382.73	2390.78	2756.85	2570.2	2351.6	2597.11	2517.81
2572.11	2384.05	2389.73	2752.06	2570.17	2348.18	2590.04	2517.78
2574.02	2381.31	2390.51	2755.21	2570.93	2346.71	2592.11	2517.53
2577.75	2384.97	2387.14	2756.71	2574.63	2350.3	2595.87	2520.16
2577.38	2384.64	2390.32	2756.33	2574.26	2351.2	2594.34	2524.41
2575.5	2386.38	2392.04	2754.66	2573.56	2351.57	2596.08	2522.45
2581.33	2387.58	2393.21	2757.83	2574.55	2355.08	2599.56	2525.97
2585.74	2386.12	2395.27	2759.82	2577.83	2351.2	2600.55	2526.93
2586.36	2387.94	2395.93	2761.46	2577.24	2355.3	2603.48	2528.66
2583.73	2388.89	2398	2762.08	2576.71	2356.25	2603.17	2529.41
2587.15	2388.88	2402.71	2763.39	2579.01	2352.69	2606.68	2532.96
2588.81	2390.63	2402.07	2773.05	2581.85	2361.37	2609.6	2534.55
2590.88	2388.02	2402.98	2770.5	2586.2	2361.14	2612.85	2536.61
2589.24	2388.87	2403.79	2772.31	2585.58	2360.75	2613.61	2539.56
2590.02	2390.85	2403.4	2774.13	2589.77	2363.78	2616.7	2545.01
2594.14	2391.46	2402.88	2779.39	2591.68	2363.17	2618.57	2545.66
2595.12	2394.88	2403.81	2776.87	2588.96	2362.96	2619.54	2548.99
2598.57	2396	2407.4	2779.15	2594.99	2365.43	2624.41	2549.15
2600.73	2395.84	2407.24	2781.24	2599.29	2372.12	2619.43	2552.22
2598.36	2395.81	2408.43	2787.05	2598	2368.54	2627.61	2554.49
2600.35	2397.86	2410.37	2785.37	2602.42	2372.86	2626.12	2557.65
2598.94	2398.86	2411.34	2786.37	2600.89	2370.19	2630.56	2562
2600.26	2400.15	2411.51	2790.15	2603.4	2373.89	2630.75	2558.64
2602.79	2399.21	2411.69	2790.03	2605.91	2375.2	2632.17	2563.47
2604.28	2405.4	2412.02	2790.41	2606.26	2375.52	2633.67	2563.82
2607.18	2402.44	2412.66	2794.6	2609.15	2380.78	2640.19	2565.47
2607.86	2403.06	2419.15	2791.42	2608.59	2377.78	2638.51	2570.91
2607.14	2403.67	2414.99	2798.79	2608.95	2378.33	2640.14	2572.52
2607.02	2397.69	2419.62	2799.96	2613.47	2379.35	2640.02	2573.49
2609.05	2402.01	2422.83	2798.34	2609.62	2381.48	2637.44	2573.2
2604.48	2399.93	2421.85	2800.78	2608.68	2379.21	2642.33	2575.67
2607.71	2402.03	2422.69	2802.74	2608.38	2381.27	2642.02	2580.01
2608.23	2403.62	2420.93	2803.31	2611.23	2384.08	2644.92	2579.31
2608.6	2401.76	2421.29	2804.7	2611.49	2382.13	2647.59	2582.04
2605.36	2400.92	2423.94	2809.59	2614.37	2387.37	2644.65	2581.37
2612.57	2404.59	2423	2812.08	2615.27	2385.8	2649.17	2582.26
2609.78	2405.27	2427.17	2810.59	2617.36	2387.93	2648.93	2584.35
2608.3	2406.28	2424.68	2813.57	2616.98	2387.77	2649.8	2585.22
2611.58	2404.77	2424.44	2813.29	2619.15	2389.77	2649.63	2588.47
2609.44	2407.33	2428.11	2818.08	2621.55	2389.95	2652.2	2587.45
2613.67	2405.82	2427.7	2819.88	2623.54	2389.54	2651.75	2597.53
2615.01	2405.98	2430.24	2822.37	2622.5	2393.24	2657.8	2590.73
2617.72	2407.43	2429.47	2826.35	2627.53	2391.2	2659.43	2589.89
2618.99	2406.4	2430.66	2830.01	2625.28	2394.8	2658.39	2594.62
2617	2405.66	2428.8	2831.15	2627.91	2397.56	2657.57	2592.62
2615.36	2409.79	2431.83	2827.33	2628.62	2395.86	2660.66	2596.85
2618.59	2410.61	2433.77	2839.01	2630.72	2395.48	2661.56	2600.06
2618.44	2411.76	2431.41	2832.72	2634.12	2401.22	2663.79	2602.25
2618.6	2411.91	2435.05	2835.18	2631.85	2402.53	2667.59	2610.61
2621.85	2410.57	2433.69	2838.47	2635.13	2402.29	2667.33	2606.81
2623.82	2412.59	2433.33	2836.77	2634.65	2401.93	2666.93	2609.96
2627.53	2413.88	2435.9	2840.56	2636.25	2405.8	2669.55	2610.35
2627.98	2416.67	2436.31	2838.75	2635.3	2401.34	2669.96	2611.73
2629.65	2414.95	2438.06	2843.62	2638.16	2406.6	2672.77	2612.2
2629.81	2413.8	2441.69	2843.8	2638.3	2407.83	2673.02	2617.07
