1764.73	1744.79	1908.32	1774.27	1721.25	1667.68	1761.16	1688.88
1886.6	1869.1	2042.41	1869.55	1828.78	1772.9	1870.88	1779.31
1847.08	1834.39	2005	1853.59	1795.43	1738.09	1836.85	1758.34
1820.18	1810.16	1974.62	1832.03	1774.42	1715.11	1812.99	1739.07
1804.06	1793.14	1954.55	1819.32	1758.75	1702.3	1797.64	1726.37
1795.95	1781.94	1942.68	1812.91	1750.62	1691.12	1786.41	1719.97
1789.98	1777.19	1934.34	1808.19	1744.66	1686.38	1778.07	1713.53
1788.67	1772.41	1929.55	1808.12	1742.87	1684.56	1774.42	1712.22
1786.83	1770.52	1926.48	1805.04	1741.52	1679.73	1773.16	1712.11
1785.65	1769.42	1924.77	1805.11	1741.59	1681.56	1773.23	1715.15
1790.33	1769.41	1926.55	1806.83	1744.55	1681.55	1775.01	1715.14
1792.03	1772.94	1925.38	1810.28	1746.25	1686.25	1773.85	1718.09
1793.62	1772.8	1927.02	1813.11	1749.58	1685.51	1775.51	1717.96
1794.73	1774.44	1928.66	1814.7	1748.21	1686.57	1775.37	1721.28
1797.92	1775.97	1931.33	1819.15	1752.17	1688.1	1778.71	1721.04
1799.67	1777.78	1932.01	1820.91	1752.19	1691.07	1779.88	1725.76
1801.41	1782.52	1933.82	1825.63	1754.05	1692.96	1781.8	1725.88
1803.37	1782.74	1937.65	1824.63	1757.62	1696.6	1774.6	1726
1806.46	1784.64	1939.58	1827.72	1762.44	1698.48	1788.56	1727.84
1811.62	1788.05	1943.01	1831.15	1765.86	1698.92	1790.82	1732.49
1814.54	1789.79	1942.97	1832.85	1770.52	1702.42	1790.78	1732.94
1816.23	1791.53	1946.52	1836.29	1769.25	1705.34	1791.88	1737.11
1819.15	1793.26	1948.26	1837.46	1773.9	1704.11	1792.48	1741.76
1822.66	1798.04	1951.26	1842.23	1776.92	1708.88	1797.28	1743.54
1825.69	1799.88	1953.13	1842.8	1780.45	1708.94	1800.93	1746.57
1830.23	1799.73	1954.76	1845.61	1783.27	1710.57	1801.92	1746.42
1828.94	1799.68	1957.64	1845.56	1786.18	1714.07	1803.67	1749.34
1831.69	1802.41	1958.07	1848.3	1787.7	1716.81	1803.45	1750.86
1834.72	1802.47	1962.2	1850.1	1790.72	1718.63	1808.24	1751.41
1835.01	1802.9	1962.65	1852.86	1792.27	1721.4	1806.91	1755.43
1839.18	1806.96	1962.61	1854.57	1798.16	1723.14	1808.01	1757.12
1841.01	1807.68	1964.52	1855.89	1798.85	1726.25	1812.92	1759.02
1845.64	1810.56	1966.25	1855.83	1800.58	1729.8	1814.71	1763.71
1845.82	1810.74	1969.38	1857.75	1804.1	1729.84	1816.55	1764.99
1847.56	1813.69	1972.99	1861.24	1805.33	1731.62	1817.69	1767.96
1848.94	1817.39	1973.13	1862.6	1808.94	1736.47	1821.43	1769.83
1852.28	1817.28	1977.75	1865.45	1811.79	1736.36	1823.12	1771.45
1854.09	1822.08	1977.83	1866.05	1813.09	1738.21	1824.33	1776.22
1855.66	1823.08	1981.26	1868.84	1814.67	1741	1824.83	1776.06
1857.6	1826.85	1982.61	1872.01	1814.87	1744.14	1827.97	1779.23
1863.4	1825.57	1984.27	1871.88	1819.45	1742.85	1828.97	1779.1
1865.05	1828.43	1984.86	1873.54	1819.37	1742.77	1830.69	1783.22
1866.83	1830.26	1989.65	1875.33	1821.16	1742.82	1831.87	1785
1872.92	1835.14	1988.69	1878.45	1824.27	1745.91	1833.82	1786.88
1872.95	1836.96	1989.85	1880.23	1826.04	1749.5	1834.53	1788.15
1876.54	1840.01	1992.9	1883.31	1827.38	1752.55	1838.25	1791.72
1881.24	1841.8	1994.7	1886.27	1830.37	1754.36	1836.47	1794.72
1884.7	1843.57	1996.49	1886.78	1832.15	1756.18	1839.44	1777.25
1889.45	1846.56	1998.35	1889.79	1833.85	1755.53	1840.54	1797.69
1889.47	1845.43	1998.38	1892.77	1835.62	1760.27	1843.49	1799.44
1892.46	1850.18	2000.21	1892.8	1836.86	1763.85	1845.32	1802.43
1893.53	1851.82	2000.04	1893.17	1838.45	1765.48	1846.96	1802.28
1896.51	1851.84	2002.99	1896.15	1840.21	1765.51	1850.59	1805.76
1898.68	1851.76	2001.78	1897.81	1843.09	1768.37	1851.64	1806.92
1902.97	1854.8	2003.01	1902.62	1841.97	1768.47	1853.54	1808.75
1904.1	1855.85	2002.91	1902.52	1846.58	1773.1	1853.44	1810.39
1906.55	1857.84	2006.74	1907.44	1845.04	1774.45	1853.64	1815.28
1909.68	1859.79	2006.91	1907.6	1846.94	1776.38	1854.93	1815.43
1907.86	1862.65	2008.63	1909.27	1849.82	1779.87	1856.65	1817.1
1912.71	1864.58	2010.59	1912.37	1849.96	1781.79	1856.79	1820.2
1912.72	1866.39	2011.73	1912.39	1851.73	1783.59	1856.81	1821.95
1916.24	1866.42	2012.46	1914.17	1852.98	1784.78	1859.78	1823.72
1916.23	1869.35	2014.26	1917.12	1855.39	1786.7	1858.79	1825.6
1917.58	1871.27	2014.39	1920.75	1856.58	1790.24	1859.89	1829.76
