1737.5	1618.13	1690.84	1686.57	1790.75	1902.18	1821.14	1792.94
1844.81	1717.25	1794.62	1775.31	1901.41	2031	1934.35	1888.06
1807.29	1683.54	1762.47	1752.64	1862.21	1988.72	1898.48	1860.1
1783.32	1660.58	1740.53	1728.77	1837.74	1959.62	1869.26	1842.11
1768.62	1645.78	1723.86	1718.86	1820.11	1942.96	1848.97	1827.47
1756.39	1635.88	1715.68	1711.33	1810.85	1931.23	1837.2	1821.18
1749.84	1632.84	1710.22	1711.23	1804.82	1922.82	1831.71	1821.07
1751.68	1631.17	1709.17	1713.05	1806.14	1919.98	1828.87	1819.93
1751.15	1631.16	1712.1	1713.05	1804.58	1920.18	1827.27	1823.08
1753.05	1633.08	1712.25	1717.89	1808.04	1921.95	1826.11	1824.8
1755.24	1635.26	1716.26	1718.32	1809.72	1924.22	1833.09	1829.95
1757	1637.05	1718.07	1720.07	1812	1924.24	1831.32	1832.94
1761.74	1641.8	1724.62	1721.83	1810.81	1927.86	1833.15	1832.97
1763.48	1642.39	1727.55	1723.07	1813.77	1928.49	1836.73	1834.7
1766.36	1645.26	1729.27	1726.44	1818.39	1931.34	1837.31	1836.35
1768.07	1648.17	1732.81	1729.37	1820.09	1936.67	1843.13	1838.05
1774.45	1651.06	1737.47	1732.76	1823.51	1939.53	1841.93	1840.94
1775.87	1654.79	1740.61	1732.96	1823.72	1944.48	1848.67	1842.39
1779.38	1657.75	1742.42	1735.94	1827.91	1948.08	1849.82	1844.64
1780.68	1659.62	1744.3	1739.49	1829.75	1949.98	1851.72	1847.7
1783.98	1661.2	1747.04	1741.02	1831.28	1952.69	1852.17	1848.72
1785.79	1665.98	1748.89	1744.04	1833.09	1953.41	1855.17	1850.52
1788.77	1666	1750.72	1744.07	1836.33	1955.5	1859.05	1852.54
1792.45	1667.94	1753.82	1747.21	1838.01	1958.36	1858.98	1855.43
1793.83	1672.83	1758.72	1749.11	1838.19	1962.15	1860.96	1856.84
1797.38	1675.82	1757.63	1747.43	1841.2	1962.2	1865.07	1860.36
1797.17	1674.45	1757.43	1750.68	1843.94	1963.76	1863.72	1860.14
1801.95	1681.02	1760.43	1749.02	1845.76	1966.77	1867.4	1863.18
1803.66	1682.15	1762.19	1751.95	1849.21	1968.53	1868.49	1864.87
1805.54	1684.04	1764.11	1752.57	1851.08	1968.66	1869.29	1869.7
1805.49	1685.77	1762.26	1755.48	1856.95	1971.54	1872.17	1869.65
1808.27	1688.55	1763.89	1756.54	1858.51	1973.14	1873.79	1872.43
1807.07	1690.33	1765.68	1756.54	1860.26	1974.94	1873.79	1878.86
1808.34	1695.11	1767.55	1758.34	1863.29	1977.95	1873.86	1875.97
1810.2	1695.21	1770.59	1760.18	1865.14	1978.07	1874.65	1879.05
1814.89	1696.97	1770.56	1760.16	1865.12	1979.84	1875.75	1876.06
1814.89	1696.98	1770.57	1763.13	1868.62	1983.44	1880.49	1881.99
1819.59	1701.69	1771.23	1763.12	1870.09	1986.65	1880.75	1882.25
1821.59	1701.92	1772.6	1765.09	1876.53	1986.63	1882.54	1885.71
1824.65	1703.8	1772.7	1765.19	1876.64	1986.75	1884.45	1887.05
1826.7	1705.23	1774.79	1765.47	1879.9	1988.86	1884.75	1889.09
1827.89	1707.01	1777.71	1768.43	1878.68	1990.65	1887.67	1892.04
1829.72	1707.08	1777.78	1768.5	1881.71	1993.66	1889.55	1890.89
1833.15	1708.78	1777.7	1770.15	1881.63	1996.51	1892.4	1894.29
1833.18	1709.97	1779.53	1773.65	1884.62	1995.41	1894.23	1893.8
1833	1711.58	1781.15	1776.44	1886.18	1995.21	1895.85	1896.57
1832.96	1713.33	1782.25	1776.41	1887.9	1996.97	1896.94	1898.28
1834.65	1716.21	1783.98	1776.34	1889.03	1998.7	1898.67	1898.73
1835.9	1719.19	1784.03	1779.35	1890.83	1999.43	1900.53	1900
1838.81	1720.94	1785.79	1781.05	1892.55	2002.31	1900.49	1904.66
1837.65	1722.76	1786.96	1781.08	1892.58	2002.36	1903.46	1904.7
1839.36	1726.8	1786.91	1782.76	1893.73	2003.42	1905.2	1906.38
1839.42	1727.49	1789.9	1782.83	1895.55	2007.1	1904.15	1906.45
1842.35	1730.41	1788.75	1785.77	1895.53	2007.08	1905.25	1909.39
1842.55	1733.54	1791.88	1787.7	1895.73	2010.9	1907.27	1911.34
1841.96	1734.13	1791.84	1788.89	1895.7	2011.99	1910.15	1911.3
1842.02	1737.13	1793.7	1790.69	1897.14	2010.44	1910.4	1912.76
1845.57	1738.95	1793.74	1790.73	1898.76	2015.71	1910.95	1916.11
1847.11	1742.22	1794.07	1792.29	1899.66	2016.08	1912.42	1921.17
1847.71	1744.04	1797.04	1794.06	1902.65	2017.92	1912.46	1918.24
1848.82	1745.75	1798.76	1795.21	1904.32	2020.76	1912.37	1921.12
1851.49	1745.48	1800.28	1798.4	1904.03	2020.45	1913.89	1922.57
1851.49	1745.48	1801.42	1798.41	1905.79	2022.26	1912.09	1925.53
1852.11	1752.04	1803.27	1801.93	1908.79	2022.32	1915.06	1925.58
