2653.21	2606.68	2457.66	2563.19	2836.6	2697.56	2549.47	2344.84
2735.44	2688.43	2528.71	2608.87	2920.05	2786.02	2629.33	2379.97
2710.52	2671.36	2512.52	2594.27	2898.72	2765.44	2609.65	2373.49
2696.67	2655.89	2500.55	2589.59	2885.95	2748.48	2598.61	2367.65
2686.55	2643.28	2491.29	2584.06	2874.78	2736.92	2584.49	2362.13
2680.44	2633.41	2483.73	2577.82	2860.35	2728.05	2573.45	2355.92
2671.39	2629.01	2480.31	2568.79	2860.69	2718.87	2571	2349.21
2667.48	2621.48	2476.17	2572.96	2856.83	2711.36	2564.46	2352.19
2667.45	2622.58	2474.03	2567.09	2853.26	2708.96	2562.04	2345.14
2663.78	2618.97	2473.91	2571.63	2854.35	2706.44	2558.14	2343.84
2664.04	2616.86	2474.15	2569.55	2853.4	2706.71	2554.96	2340.59
2657.92	2618.95	2472.56	2573.95	2851.87	2707.71	2558.46	2341.53
2661.84	2616.04	2469.8	2568.61	2859.27	2705.72	2555.4	2343.25
2660.51	2618.3	2469.71	2568.51	2856.71	2705.83	2559.07	2341.98
2660.71	2620.86	2477.06	2572.2	2859.42	2706.2	2557.03	2342.31
2664.25	2623.37	2473.76	2574.69	2859.6	2711.27	2565.55	2342.57
2668.96	2628.2	2479.69	2572.45	2862.89	2708.88	2563.29	2343.56
2670.55	2628.71	2479.28	2573.97	2863.15	2716.39	2566.41	2345.02
2673.29	2633.87	2480.72	2576.72	2869.34	2718.14	2569.88	2344.25
2676.18	2636.95	2486.18	2578.59	2872.54	2723.64	2573.34	2344.88
2676.81	2635.26	2485.94	2582.69	2876.53	2725.42	2574.16	2347.83
2678.08	2636.71	2487.14	2584.03	2874.3	2726.92	2578.14	2347.99
2680.59	2640.37	2491.08	2585.41	2879.14	2730.83	2583.15	2349.34
2684.06	2644.08	2492.5	2585.46	2881.52	2733.28	2585.61	2348.21
2686.69	2648.05	2498.97	2588.11	2882.97	2733.87	2585.32	2350.81
2685.32	2650.27	2494.01	2591.49	2889.85	2737.45	2586.17	2350.67
2689.6	2652.29	2494.03	2592.3	2890.58	2739.48	2590.66	2355.02
2692.97	2653.43	2500.75	2598.04	2888.02	2744.11	2595.77	2356.07
2695.44	2658.42	2499.94	2597.12	2891.72	2746.74	2596.99	2359.76
2699.36	2661.2	2501.69	2601	2900.32	2748.5	2597.81	2358.96
2697.38	2661.73	2503.38	2601.4	2899.48	2750.1	2600.91	2358.25
2698.36	2662.89	2504.63	2602.45	2903.43	2754.32	2604.75	2359.83
2702.46	2666.92	2508.59	2605.36	2907.26	2754.95	2607.92	2360.09
2702.78	2667.54	2510.34	2608.15	2907.34	2760.85	2608.97	2364.82
2708.78	2674.6	2515.3	2610.65	2913.3	2759.98	2610.56	2364.95
2705.89	2675.41	2513.82	2612.52	2912.75	2764.26	2616.36	2368.01
2708.19	2675.39	2516.21	2611.28	2913.87	2764.23	2616.34	2369.15
2713.11	2679.35	2518.86	2613.89	2920	2769.31	2620.48	2368.21
2713.18	2681.8	2515.5	2615.16	2921.21	2767.32	2624.43	2371.78
2717.08	2683.55	2517.3	2620.28	2922.82	2773.59	2629.7	2372.15
2717.56	2678.08	2516.65	2618.47	2923.25	2776.66	2625.62	2372.7
2721.32	2683.13	2521.74	2622.23	2923.53	2779.35	2633.19	2375.28
2723.47	2679.5	2525.4	2619.79	2926.84	2780.56	2632.05	2375.12
2725.89	2683.04	2521.65	2622.23	2925.76	2780.64	2633.09	2377.54
2723.66	2687.91	2531.4	2624.69	2932.87	2784.55	2634.66	2378.8
2726.97	2688.02	2527.83	2629.24	2929.18	2781.96	2634.5	2375.14
2729.83	2688.53	2529.74	2626.26	2933.25	2787.32	2639.87	2382.61
2731	2690.93	2529.74	2628.63	2936.76	2786.31	2638.92	2381.45
2736.83	2698.1	2531.15	2630.97	2938.96	2792.11	2642.28	2386.95
2734.42	2699.18	2535.58	2635.51	2939.59	2792.71	2641.9	2385.14
2737.01	2698.37	2538.23	2634.63	2942.87	2792.49	2644.13	2386.12
2739.76	2705.97	2538.61	2635.02	2945.65	2790.89	2647.91	2386.47
2739.94	2702.7	2537.78	2636.44	2944.68	2795.91	2647.13	2391.31
2741.08	2704.96	2538.11	2638.77	2944.56	2794.68	2647.46	2391.45
2740.84	2705.77	2537.88	2638.53	2950.16	2794.44	2649.12	2390.06
2745.6	2703.76	2542.81	2643.34	2950.25	2797.36	2650.7	2393.66
2746.68	2706.06	2540.3	2645.62	2948.99	2801.67	2652.1	2390.05
2747.7	2707.16	2542.94	2645.59	2948.73	2799.33	2650.82	2394.77
2748.16	2712.4	2539.5	2642.55	2951.56	2802.21	2650.32	2397.51
2748.32	2712.56	2542.53	2642.71	2954.07	2804.79	2655.35	2397.65
2749.96	2714.37	2542.49	2647.88	2954.6	2806.68	2654.3	2399.25
